{
  "project_info": {
    "project_number": "960630553070",
    "firebase_url": "https://pictureseverywhere-fpfs.firebaseio.com",
    "project_id": "pictureseverywhere-fpfs",
    "storage_bucket": "pictureseverywhere-fpfs.appspot.com"
  },
  "client": [
    {
      "client_info": {
        "mobilesdk_app_id": "1:960630553070:android:6fb622b1c8be24a7",
        "android_client_info": {
          "package_name": "com.bakerheather.hb.pictureseverywhere"
        }
      },
      "oauth_client": [
        {
          "client_id": "960630553070-sr8epfsrajalsrgpmud57dgea7tg75tv.apps.googleusercontent.com",
          "client_type": 1,
          "android_info": {
            "package_name": "com.bakerheather.hb.pictureseverywhere",
            "certificate_hash": "6fdf2c0e0be96b6d77e98ee204a08f7ee4a9deaa"
          }
        },
        {
          "client_id": "960630553070-n3n0m739kanq6ebjakf84lfdaqi2lggc.apps.googleusercontent.com",
          "client_type": 3
        }
      ],
      "api_key": [
        {
          "current_key": "AIzaSyD1uvZJ4a7u_IhrllVFZhxAZNG9cejB3y8"
        }
      ],
      "services": {
        "analytics_service": {
          "status": 1
        },
        "appinvite_service": {
          "status": 2,
          "other_platform_oauth_client": [
            {
              "client_id": "960630553070-n3n0m739kanq6ebjakf84lfdaqi2lggc.apps.googleusercontent.com",
              "client_type": 3
            }
          ]
        },
        "ads_service": {
          "status": 2
        }
      }
    }
  ],
  "configuration_version": "1"
}